<?xml version="1.0" encoding="UTF-8" standalone="no"?>
<svg
   xmlns:dc="http://purl.org/dc/elements/1.1/"
   xmlns:cc="http://creativecommons.org/ns#"
   xmlns:rdf="http://www.w3.org/1999/02/22-rdf-syntax-ns#"
   xmlns:svg="http://www.w3.org/2000/svg"
   xmlns="http://www.w3.org/2000/svg"
   id="svg1298"
   viewBox="0 0 400 360"
   width="300"
   version="1.0">
  <metadata
     id="metadata1302">
    <rdf:RDF>
      <cc:Work
         rdf:about="">
        <dc:format>image/svg+xml</dc:format>
        <dc:type
           rdf:resource="http://purl.org/dc/dcmitype/StillImage" />
        <dc:title></dc:title>
      </cc:Work>
    </rdf:RDF>
  </metadata>
  <defs
     id="defs1186">
    <pattern
       y="0"
       x="0"
       height="6"
       width="6"
       patternUnits="userSpaceOnUse"
       id="EMFhbasepattern" />
  </defs>
  <path
     id="path1188"
     d="M 33.567839,178.22792 106.18439,1.3373581 H 324.07396 L 396.6905,178.22792 324.07396,355.11848 H 106.18439 Z"
     style="fill:none;stroke:#4472c4;stroke-width:2.67471623px;stroke-linecap:butt;stroke-linejoin:miter;stroke-miterlimit:8;stroke-dasharray:none;stroke-opacity:1" />
  <text
     id="text1194"
     y="40.329823"
     x="-1.1220703"
     style="font-style:normal;font-variant:normal;font-weight:400;font-size:23.9375px;line-height:125%;font-family:Calibri;text-align:start;letter-spacing:0px;word-spacing:0px;text-anchor:start;fill:#000000;fill-opacity:1;stroke:none"
     xml:space="preserve"><tspan
       id="tspan1192"
       y="40.329823"
       x="-1.1220703"><tspan
         id="tspan1190"
         style="font-style:normal;font-variant:normal;font-weight:400;font-size:23.9375px;font-family:Calibri;fill:#4472c4"
         dy="0"
         dx="0">drivers</tspan></tspan></text>
  <path
     id="path1196"
     d="m 128.98499,202.10076 39.21056,-92.04515 h 117.66024 l 39.21056,92.04515 -39.21056,92.04516 H 168.19555 Z"
     style="fill:none;stroke:#4472c4;stroke-width:1.91046321px;stroke-linecap:butt;stroke-linejoin:miter;stroke-miterlimit:8;stroke-dasharray:none;stroke-opacity:1" />
  <text
     id="text1202"
     y="49.666607"
     x="115.91238"
     style="font-style:normal;font-variant:normal;font-weight:400;font-size:23.9375px;line-height:125%;font-family:Calibri;text-align:start;letter-spacing:0px;word-spacing:0px;text-anchor:start;fill:#000000;fill-opacity:1;stroke:none"
     xml:space="preserve"><tspan
       id="tspan1200"
       y="49.666607"
       x="115.91238"><tspan
         id="tspan1198"
         style="font-style:normal;font-variant:normal;font-weight:400;font-size:23.9375px;font-family:Calibri;fill:#4472c4"
         dy="0"
         dx="0">solve</tspan></tspan></text>
  <text
     id="text1208"
     y="73.459602"
     x="115.91238"
     style="font-style:italic;font-variant:normal;font-weight:400;font-size:18.6875px;line-height:125%;font-family:Calibri;text-align:start;letter-spacing:0px;word-spacing:0px;text-anchor:start;fill:#000000;fill-opacity:1;stroke:none"
     xml:space="preserve"><tspan
       id="tspan1206"
       y="73.459602"
       x="115.91238"><tspan
         id="tspan1204"
         style="font-style:italic;font-variant:normal;font-weight:400;font-size:18.6875px;font-family:Calibri;fill:#4472c4"
         dy="0"
         dx="0">class: NonLinearSolver</tspan></tspan></text>
  <text
     id="text1240"
     y="181.32324"
     x="172.43779"
     style="font-style:normal;font-variant:normal;font-weight:normal;font-size:18.68800015px;line-height:125%;font-family:Calibri;text-align:start;letter-spacing:0px;word-spacing:0px;text-anchor:start;fill:#4472c4;fill-opacity:1;stroke:none;-inkscape-font-specification:'Calibri, Normal';font-stretch:normal;writing-mode:lr;font-variant-ligatures:normal;font-variant-caps:normal;font-variant-numeric:normal;font-feature-settings:normal;"
     xml:space="preserve"><tspan
       id="tspan4506">runner</tspan></text>
  <text
     id="text1252"
     y="200.00633"
     x="172.43779"
     style="font-style:italic;font-variant:normal;font-weight:400;font-size:14.6875px;line-height:125%;font-family:Calibri;text-align:start;letter-spacing:0px;word-spacing:0px;text-anchor:start;fill:#000000;fill-opacity:1;stroke:none"
     xml:space="preserve"><tspan
       id="tspan1250"
       y="200.00633"
       x="172.43779"><tspan
         id="tspan1248"
         style="font-style:italic;font-variant:normal;font-weight:400;font-size:14.6875px;font-family:Calibri;fill:#4472c4"
         dy="0"
         dx="0">class: RunSingleCase</tspan></tspan></text>
</svg>
